DS202: Lab 5
…
3. Create a data frame containing the most dangerous vehicle make in each state. The number of persons fatally hit in the vehicle make is used to assess the (non-)safety of a make. Make sure to handle the missing values appropriately. (look up variable MAKE)

#need one for each state - some states have NA make
q3 <- person %>%
      filter(INJ_SEV == 4) %>%
      group_by(STATE, MAKE) %>%
      summarise(Accidents = n()) %>%
      filter(Accidents == max(Accidents))

## `summarise()` has grouped output by 'STATE'. You can override using the `.groups` argument.

q3 <- drop_na(q3)
q3

## # A tibble: 24 x 3
## # Groups:   STATE [23]
##    STATE  MAKE Accidents
##    <int> <int>     <int>
##  1     1    12       138
##  2     5    20        88
##  3    15    49        21
##  4    16    12        35
##  5    18    20       133
##  6    19    20        57
##  7    20    20        74
##  8    21    20       129
##  9    27    20        48
## 10    28    20       120
## # ... with 14 more rows
…
