DS202: Lab 5
…
Looking in the FARS manual, I found that a Fatal Injury is represented as the number 4 in INJ_SEV. With that, I used filter to filter the data so it only shows records of those who had a fatal injury.

3. Create a data frame containing the most dangerous vehicle make in each state. The number of persons fatally hit in the vehicle make is used to assess the (non-)safety of a make. Make sure to handle the missing values appropriately. (look up variable MAKE)

q3 <- person %>%
      filter(INJ_SEV == 4) %>%
      group_by(STATE, MAKE) %>%
      summarise(Accidents = n()) %>%
      filter(Accidents == max(Accidents))

q3 <- drop_na(q3)
q3

## # A tibble: 24 x 3
## # Groups:   STATE [23]
##    STATE  MAKE Accidents
##    <int> <int>     <int>
##  1     1    12       138
##  2     5    20        88
##  3    15    49        21
##  4    16    12        35
##  5    18    20       133
##  6    19    20        57
##  7    20    20        74
##  8    21    20       129
##  9    27    20        48
## 10    28    20       120
## # ... with 14 more rows
…
#Had to do separate commands because I kept getting vector memory error
acc <- left_join(summerStates, winterStates, by = c("STATE" = "STATE"))
acc <- acc %>% left_join(usa, by = c("STATE" = "State Code"))
acc <- acc %>% left_join(states, by = c("State Name" = "region")) %>% select(`State Name`, sFatalities, wFatalities)
acc <- acc %>% unique()

#Shows states that get more accidents in the summer than winter
more_summer_acc <- acc %>% group_by(`State Name`) %>% 
         summarise(summerAcc = sFatalities - wFatalities) %>% 
         filter(summerAcc > 0) %>%
         arrange(desc(summerAcc))
more_summer_acc

## # A tibble: 40 x 2
##    `State Name` summerAcc
##    <chr>            <int>
##  1 indiana            378
##  2 california         321
##  3 texas              292
##  4 illinois           290
##  5 ohio               276
##  6 colorado           267
##  7 new mexico         235
##  8 georgia            216
##  9 new york           177
## 10 michigan           175
## # ... with 30 more rows
…
